{
    "elementName": "ObjectSchema",
    "name": "ContactGetSubcribers",
    "containers": [{
        "name": "container",
        "elementName": "Container",
        "style": {
            "top": 0,
            "left": 0,
            "width": 280,
            "height": 97,
            "position": "relative"
        },
        "props": {
            "startOnNewPage": false,
            "unbreakable": false
        },
        "boxes": [{
                "name": "ContactGetSubcribersSectionOne",
                "elementName": "ContactGetSubcribers.SectionOne",
                "style": {
                    "top": 7,
                    "left": 0,
                    "width": 280,
                    "height": 85,
                    "transform": {
 
                    }  
                },
                "html": "<section class='contact_sec' style='position: absolute;left: 0;right: 0;width: 400px;height: 210px;'><div class='contact_form_one'><h4>Join our mailing list</h4><h4>Never miss an update</h4><form action='' method=''><input type='email' placeholder='Email Address'><button type='submit' class='subscribe_btn'>Subscribe Now</button></form></div></section>",
                "props": {
                    "width": 100,
                    "height": 100,
                    "strokeWidth": 2
                }
            }
        ],
        "containers": [

        ]
    }],
    "data": {

    },
    "props": {
        "context": {

        }
    }
}