<?xml version="1.0" encoding="utf-8"?>
<!-- Generator: Adobe Illustrator 16.0.0, SVG Export Plug-In . SVG Version: 6.00 Build 0)  -->
<!DOCTYPE svg PUBLIC "-//W3C//DTD SVG 1.1//EN" "http://www.w3.org/Graphics/SVG/1.1/DTD/svg11.dtd">
<svg version="1.1" id="Layer_1" xmlns="http://www.w3.org/2000/svg" xmlns:xlink="http://www.w3.org/1999/xlink" x="0px" y="0px"
	 width="50px" height="50px" viewBox="0 0 50 50" enable-background="new 0 0 50 50" xml:space="preserve">
<rect fill="none" width="50" height="50"/>
<g>
	<path fill="none" stroke="#ABABAB" stroke-width="5" stroke-miterlimit="10" d="M29.2,25.85c-0.45-0.45-0.7-1-0.7-1.149
		c0-0.15,0.25-0.2,0.7-0.7c6.2-2.1,10.7-8.75,10.8-16.25h-5H15h-5c0.1,7.5,4.6,14.05,10.8,16.15c0.45,0.45,0.7,0.6,0.7,0.75
		s-0.25,0.8-0.7,1.25C14.6,28.05,10.1,34.75,10,42.75h5h20h5C39.9,34.75,35.4,27.95,29.2,25.85z"/>
	<g>
		<defs>
			<rect id="SVGID_1_" x="7.5" y="10" width="35" height="12.5"/>
		</defs>
		<clipPath id="SVGID_2_">
			<use xlink:href="#SVGID_1_"  overflow="visible"/>
		</clipPath>
		<path clip-path="url(#SVGID_2_)" fill="#00AAFF" d="M14.5,11.5c1.55,5.7,5.65,9.75,10.5,9.75c4.85,0,8.95-4.05,10.5-9.75H14.5z"/>
	</g>
	<g>
		<defs>
			<rect id="SVGID_3_" x="7.5" y="27.5" width="35" height="12.5"/>
		</defs>
		<clipPath id="SVGID_4_">
			<use xlink:href="#SVGID_3_"  overflow="visible"/>
		</clipPath>
		<path clip-path="url(#SVGID_4_)" fill="#00AAFF" d="M35.8,39c-1.5-5.8-5.75-10-10.75-10S15.8,33.2,14.3,39H35.8z"/>
	</g>
	
		<animateTransform  type="rotate" fill="remove" restart="always" calcMode="linear" additive="replace" accumulate="none" keyTimes="0;0.7;1" values="0 50 50;0 50 50;180 50 50" dur="1s" repeatCount="indefinite" to="180 50 50" from="0 50 50" attributeName="transform">
		</animateTransform>
</g>
</svg>
